simulation/qsim/processor.msim.vcd
$comment
	File created using the following command:
		vcd file processor.msim.vcd -direction
$end
$date
	Thu Nov 03 14:55:45 2022
$end
$version
	ModelSim Version 10.5b
$end
$timescale
	1ps
$end

$scope module skeleton_vlg_vec_tst $end
$var reg 1 ! clock $end
$var reg 1 " reset $end
$var wire 1 # dmem_clock $end
$var wire 1 $ imem_clock $end
$var wire 1 % processor_clock $end
$var wire 1 & regfile_clock $end

$scope module i1 $end
$var wire 1 ' gnd $end
$var wire 1 ( vcc $end
$var wire 1 ) unknown $end
$var tri1 1 * devclrn $end
$var tri1 1 + devpor $end
$var tri1 1 , devoe $end
$var wire 1 - imem_clock~output_o $end
$var wire 1 . dmem_clock~output_o $end
$var wire 1 / processor_clock~output_o $end
$var wire 1 0 regfile_clock~output_o $end
$var wire 1 1 clock~input_o $end
$var wire 1 2 clock~inputclkctrl_outclk $end
$var wire 1 3 pc_clk|r_reg[0]~0_combout $end
$var wire 1 4 reset~input_o $end
$var wire 1 5 reset~inputclkctrl_outclk $end
$var wire 1 6 pc_clk|clk_track~0_combout $end
$var wire 1 7 pc_clk|clk_track~q $end
$var wire 1 8 pc_clk|r_reg [1] $end
$var wire 1 9 pc_clk|r_reg [0] $end
$upscope $end
$upscope $end
$enddefinitions $end
#0
$dumpvars
0!
0"
0#
0$
0%
0&
0'
1(
x)
1*
1+
1,
0-
0.
0/
00
01
02
13
04
05
06
07
09
z8
$end
#5000
1!
11
12
1-
1.
1#
1$
19
16
03
#10000
0!
01
02
0-
0.
0#
0$
#15000
1!
11
12
1-
1.
1#
1$
09
17
1/
10
1&
1%
13
#20000
1"
0!
14
15
01
02
0-
0.
0#
0$
07
0/
00
0&
0%
06
#25000
1!
11
12
1-
1.
1#
1$
#30000
0!
01
02
0-
0.
0#
0$
#35000
1!
11
12
1-
1.
1#
1$
#40000
0!
01
02
0-
0.
0#
0$
#45000
1!
11
12
1-
1.
1#
1$
#50000
0!
01
02
0-
0.
0#
0$
#55000
1!
11
12
1-
1.
1#
1$
#60000
0!
01
02
0-
0.
0#
0$
#65000
1!
11
12
1-
1.
1#
1$
#70000
0!
01
02
0-
0.
0#
0$
#75000
1!
11
12
1-
1.
1#
1$
#80000
0!
01
02
0-
0.
0#
0$
#85000
1!
11
12
1-
1.
1#
1$
#90000
0!
01
02
0-
0.
0#
0$
#95000
1!
11
12
1-
1.
1#
1$
#100000
0!
01
02
0-
0.
0#
0$
#105000
1!
11
12
1-
1.
1#
1$
#110000
0!
01
02
0-
0.
0#
0$
#115000
1!
11
12
1-
1.
1#
1$
#120000
0!
01
02
0-
0.
0#
0$
#125000
1!
11
12
1-
1.
1#
1$
#130000
0!
01
02
0-
0.
0#
0$
#135000
1!
11
12
1-
1.
1#
1$
#140000
0!
01
02
0-
0.
0#
0$
#145000
1!
11
12
1-
1.
1#
1$
#150000
0!
01
02
0-
0.
0#
0$
#155000
1!
11
12
1-
1.
1#
1$
#160000
0!
01
02
0-
0.
0#
0$
#165000
1!
11
12
1-
1.
1#
1$
#170000
0!
01
02
0-
0.
0#
0$
#175000
1!
11
12
1-
1.
1#
1$
#180000
0!
01
02
0-
0.
0#
0$
#185000
1!
11
12
1-
1.
1#
1$
#190000
0!
01
02
0-
0.
0#
0$
#195000
1!
11
12
1-
1.
1#
1$
#200000
0!
01
02
0-
0.
0#
0$
#205000
1!
11
12
1-
1.
1#
1$
#210000
0!
01
02
0-
0.
0#
0$
#215000
1!
11
12
1-
1.
1#
1$
#220000
0!
01
02
0-
0.
0#
0$
#225000
1!
11
12
1-
1.
1#
1$
#230000
0!
01
02
0-
0.
0#
0$
#235000
1!
11
12
1-
1.
1#
1$
#240000
0!
01
02
0-
0.
0#
0$
#245000
1!
11
12
1-
1.
1#
1$
#250000
0!
01
02
0-
0.
0#
0$
#255000
1!
11
12
1-
1.
1#
1$
#260000
0!
01
02
0-
0.
0#
0$
#265000
1!
11
12
1-
1.
1#
1$
#270000
0!
01
02
0-
0.
0#
0$
#275000
1!
11
12
1-
1.
1#
1$
#280000
0!
01
02
0-
0.
0#
0$
#285000
1!
11
12
1-
1.
1#
1$
#290000
0!
01
02
0-
0.
0#
0$
#295000
1!
11
12
1-
1.
1#
1$
#300000
0!
01
02
0-
0.
0#
0$
#305000
1!
11
12
1-
1.
1#
1$
#310000
0!
01
02
0-
0.
0#
0$
#315000
1!
11
12
1-
1.
1#
1$
#320000
0!
01
02
0-
0.
0#
0$
#325000
1!
11
12
1-
1.
1#
1$
#330000
0!
01
02
0-
0.
0#
0$
#335000
1!
11
12
1-
1.
1#
1$
#340000
0!
01
02
0-
0.
0#
0$
#345000
1!
11
12
1-
1.
1#
1$
#350000
0!
01
02
0-
0.
0#
0$
#355000
1!
11
12
1-
1.
1#
1$
#360000
0!
01
02
0-
0.
0#
0$
#365000
1!
11
12
1-
1.
1#
1$
#370000
0!
01
02
0-
0.
0#
0$
#375000
1!
11
12
1-
1.
1#
1$
#380000
0!
01
02
0-
0.
0#
0$
#385000
1!
11
12
1-
1.
1#
1$
#390000
0!
01
02
0-
0.
0#
0$
#395000
1!
11
12
1-
1.
1#
1$
#400000
0!
01
02
0-
0.
0#
0$
#405000
1!
11
12
1-
1.
1#
1$
#410000
0!
01
02
0-
0.
0#
0$
#415000
1!
11
12
1-
1.
1#
1$
#420000
0!
01
02
0-
0.
0#
0$
#425000
1!
11
12
1-
1.
1#
1$
#430000
0!
01
02
0-
0.
0#
0$
#435000
1!
11
12
1-
1.
1#
1$
#440000
0!
01
02
0-
0.
0#
0$
#445000
1!
11
12
1-
1.
1#
1$
#450000
0!
01
02
0-
0.
0#
0$
#455000
1!
11
12
1-
1.
1#
1$
#460000
0!
01
02
0-
0.
0#
0$
#465000
1!
11
12
1-
1.
1#
1$
#470000
0!
01
02
0-
0.
0#
0$
#475000
1!
11
12
1-
1.
1#
1$
#480000
0!
01
02
0-
0.
0#
0$
#485000
1!
11
12
1-
1.
1#
1$
#490000
0!
01
02
0-
0.
0#
0$
#495000
1!
11
12
1-
1.
1#
1$
#500000
0!
01
02
0-
0.
0#
0$
#505000
1!
11
12
1-
1.
1#
1$
#510000
0!
01
02
0-
0.
0#
0$
#515000
1!
11
12
1-
1.
1#
1$
#520000
0!
01
02
0-
0.
0#
0$
#525000
1!
11
12
1-
1.
1#
1$
#530000
0"
0!
04
05
01
02
0-
0.
0#
0$
#535000
1!
11
12
1-
1.
1#
1$
19
16
03
#540000
0!
01
02
0-
0.
0#
0$
#545000
1!
11
12
1-
1.
1#
1$
09
17
1/
10
1&
1%
13
#550000
0!
01
02
0-
0.
0#
0$
#555000
1!
11
12
1-
1.
1#
1$
19
06
03
#560000
0!
01
02
0-
0.
0#
0$
#565000
1!
11
12
1-
1.
1#
1$
09
07
0/
00
0&
0%
13
#570000
0!
01
02
0-
0.
0#
0$
#575000
1!
11
12
1-
1.
1#
1$
19
16
03
#580000
0!
01
02
0-
0.
0#
0$
#585000
1!
11
12
1-
1.
1#
1$
09
17
1/
10
1&
1%
13
#590000
0!
01
02
0-
0.
0#
0$
#595000
1!
11
12
1-
1.
1#
1$
19
06
03
#600000
0!
01
02
0-
0.
0#
0$
#605000
1!
11
12
1-
1.
1#
1$
09
07
0/
00
0&
0%
13
#610000
0!
01
02
0-
0.
0#
0$
#615000
1!
11
12
1-
1.
1#
1$
19
16
03
#620000
0!
01
02
0-
0.
0#
0$
#625000
1!
11
12
1-
1.
1#
1$
09
17
1/
10
1&
1%
13
#630000
0!
01
02
0-
0.
0#
0$
#635000
1!
11
12
1-
1.
1#
1$
19
06
03
#640000
0!
01
02
0-
0.
0#
0$
#645000
1!
11
12
1-
1.
1#
1$
09
07
0/
00
0&
0%
13
#650000
0!
01
02
0-
0.
0#
0$
#655000
1!
11
12
1-
1.
1#
1$
19
16
03
#660000
0!
01
02
0-
0.
0#
0$
#665000
1!
11
12
1-
1.
1#
1$
09
17
1/
10
1&
1%
13
#670000
0!
01
02
0-
0.
0#
0$
#675000
1!
11
12
1-
1.
1#
1$
19
06
03
#680000
0!
01
02
0-
0.
0#
0$
#685000
1!
11
12
1-
1.
1#
1$
09
07
0/
00
0&
0%
13
#690000
0!
01
02
0-
0.
0#
0$
#695000
1!
11
12
1-
1.
1#
1$
19
16
03
#700000
0!
01
02
0-
0.
0#
0$
#705000
1!
11
12
1-
1.
1#
1$
09
17
1/
10
1&
1%
13
#710000
0!
01
02
0-
0.
0#
0$
#715000
1!
11
12
1-
1.
1#
1$
19
06
03
#720000
0!
01
02
0-
0.
0#
0$
#725000
1!
11
12
1-
1.
1#
1$
09
07
0/
00
0&
0%
13
#730000
0!
01
02
0-
0.
0#
0$
#735000
1!
11
12
1-
1.
1#
1$
19
16
03
#740000
0!
01
02
0-
0.
0#
0$
#745000
1!
11
12
1-
1.
1#
1$
09
17
1/
10
1&
1%
13
#750000
0!
01
02
0-
0.
0#
0$
#755000
1!
11
12
1-
1.
1#
1$
19
06
03
#760000
0!
01
02
0-
0.
0#
0$
#765000
1!
11
12
1-
1.
1#
1$
09
07
0/
00
0&
0%
13
#770000
0!
01
02
0-
0.
0#
0$
#775000
1!
11
12
1-
1.
1#
1$
19
16
03
#780000
0!
01
02
0-
0.
0#
0$
#785000
1!
11
12
1-
1.
1#
1$
09
17
1/
10
1&
1%
13
#790000
0!
01
02
0-
0.
0#
0$
#795000
1!
11
12
1-
1.
1#
1$
19
06
03
#800000
0!
01
02
0-
0.
0#
0$
#805000
1!
11
12
1-
1.
1#
1$
09
07
0/
00
0&
0%
13
#810000
0!
01
02
0-
0.
0#
0$
#815000
1!
11
12
1-
1.
1#
1$
19
16
03
#820000
0!
01
02
0-
0.
0#
0$
#825000
1!
11
12
1-
1.
1#
1$
09
17
1/
10
1&
1%
13
#830000
0!
01
02
0-
0.
0#
0$
#835000
1!
11
12
1-
1.
1#
1$
19
06
03
#840000
0!
01
02
0-
0.
0#
0$
#845000
1!
11
12
1-
1.
1#
1$
09
07
0/
00
0&
0%
13
#850000
0!
01
02
0-
0.
0#
0$
#855000
1!
11
12
1-
1.
1#
1$
19
16
03
#860000
0!
01
02
0-
0.
0#
0$
#865000
1!
11
12
1-
1.
1#
1$
09
17
1/
10
1&
1%
13
#870000
0!
01
02
0-
0.
0#
0$
#875000
1!
11
12
1-
1.
1#
1$
19
06
03
#880000
0!
01
02
0-
0.
0#
0$
#885000
1!
11
12
1-
1.
1#
1$
09
07
0/
00
0&
0%
13
#890000
0!
01
02
0-
0.
0#
0$
#895000
1!
11
12
1-
1.
1#
1$
19
16
03
#900000
0!
01
02
0-
0.
0#
0$
#905000
1!
11
12
1-
1.
1#
1$
09
17
1/
10
1&
1%
13
#910000
0!
01
02
0-
0.
0#
0$
#915000
1!
11
12
1-
1.
1#
1$
19
06
03
#920000
0!
01
02
0-
0.
0#
0$
#925000
1!
11
12
1-
1.
1#
1$
09
07
0/
00
0&
0%
13
#930000
0!
01
02
0-
0.
0#
0$
#935000
1!
11
12
1-
1.
1#
1$
19
16
03
#940000
0!
01
02
0-
0.
0#
0$
#945000
1!
11
12
1-
1.
1#
1$
09
17
1/
10
1&
1%
13
#950000
0!
01
02
0-
0.
0#
0$
#955000
1!
11
12
1-
1.
1#
1$
19
06
03
#960000
0!
01
02
0-
0.
0#
0$
#965000
1!
11
12
1-
1.
1#
1$
09
07
0/
00
0&
0%
13
#970000
0!
01
02
0-
0.
0#
0$
#975000
1!
11
12
1-
1.
1#
1$
19
16
03
#980000
0!
01
02
0-
0.
0#
0$
#985000
1!
11
12
1-
1.
1#
1$
09
17
1/
10
1&
1%
13
#990000
0!
01
02
0-
0.
0#
0$
#995000
1!
11
12
1-
1.
1#
1$
19
06
03
