simulation/qsim/processor.msim.vcd
$comment
	File created using the following command:
		vcd file processor.msim.vcd -direction
$end
$date
	Wed Nov 02 12:56:44 2022
$end
$version
	ModelSim Version 10.5b
$end
$timescale
	1ps
$end

$scope module cmp_vlg_vec_tst $end
$var reg 5 ! numberTwo [4:0] $end
$var reg 5 " numberone [4:0] $end
$var wire 1 # equal_flag $end

$scope module i1 $end
$var wire 1 $ gnd $end
$var wire 1 % vcc $end
$var wire 1 & unknown $end
$var tri1 1 ' devclrn $end
$var tri1 1 ( devpor $end
$var tri1 1 ) devoe $end
$var wire 1 * numberone[1]~input_o $end
$var wire 1 + numberone[2]~input_o $end
$var wire 1 , numberone[3]~input_o $end
$var wire 1 - numberone[4]~input_o $end
$var wire 1 . numberTwo[1]~input_o $end
$var wire 1 / numberTwo[2]~input_o $end
$var wire 1 0 numberTwo[3]~input_o $end
$var wire 1 1 numberTwo[4]~input_o $end
$var wire 1 2 equal_flag~output_o $end
$var wire 1 3 numberone[0]~input_o $end
$var wire 1 4 numberTwo[0]~input_o $end
$var wire 1 5 ad4~0_combout $end
$upscope $end
$upscope $end
$enddefinitions $end
#0
$dumpvars
b10000 !
b0 "
1#
0$
1%
x&
1'
1(
1)
0*
0+
0,
0-
0.
0/
00
11
12
03
04
05
$end
#90000
b11000 !
b11100 !
b11110 !
1.
1/
10
#100000
b11111 !
b11101 !
14
0.
15
02
0#
#110000
b1101 !
b101 !
00
01
#120000
b100 !
b110 !
b10110 !
b11110 !
04
1.
10
11
05
12
1#
#130000
b11100 !
b1100 !
b100 !
0.
00
01
#140000
b0 !
b10000 !
0/
11
#150000
b10100 !
1/
#160000
b11100 !
b1100 !
10
01
#170000
b1101 !
b1001 !
b1 !
b10001 !
14
0/
00
11
15
02
0#
#180000
b10011 !
b10111 !
b111 !
1.
1/
01
#190000
b11 !
b10011 !
0/
11
#200000
b11 !
01
#210000
b1011 !
b1111 !
b11111 !
1/
10
11
#220000
b10 "
b11110 !
b10110 !
04
00
1*
05
12
1#
#230000
b10010 "
b11010 "
b11011 "
b110 !
b111 !
b1111 !
14
10
01
13
1,
1-
#240000
b11111 "
b11101 "
b1101 "
b11111 !
b10111 !
00
11
0*
1+
0-
#250000
b10101 !
b10001 !
b1 !
b1001 !
0.
0/
10
01
#260000
b1100 "
b1011 !
b1111 !
b111 !
1.
1/
00
03
15
02
0#
#270000
b100 "
b0 "
b10000 "
b10111 !
b10101 !
b10001 !
b11001 !
0.
0/
10
11
0+
0,
1-
#280000
b10001 "
b11001 "
b1001 "
b1001 !
01
13
1,
0-
05
12
1#
#290000
b1011 "
b1111 "
b1011 !
b1111 !
b111 !
b111 "
1.
1/
00
1*
1+
0,
#300000
b101 "
b101 !
0.
0*
#310000
b10101 "
b10101 !
11
1-
#330000
b10100 !
b10100 "
b11100 !
b11100 "
b1100 "
b1100 !
03
1,
0-
04
10
01
#340000
b1110 "
b1110 !
b110 !
b110 "
1.
00
1*
0,
#350000
b10 "
b10 !
b0 "
b0 !
0.
0/
0*
0+
#360000
b1 !
b1 "
b101 "
b101 !
b111 "
b111 !
13
1*
1+
14
1.
1/
#370000
b1111 !
b1111 "
b1110 !
b1110 "
b1100 "
b1100 !
03
0*
1,
04
0.
10
#380000
b11100 "
b11100 !
b11000 "
b11000 !
0/
11
0+
1-
#400000
b11001 !
b11001 "
b1001 "
b1001 !
13
0-
14
01
#410000
b1011 "
b1011 !
b1010 !
b1010 "
b11010 "
b11010 !
04
1.
11
03
1*
1-
#420000
b11110 "
b11110 !
b11111 !
b11111 "
14
1/
13
1+
#430000
b1111 "
b1111 !
b1110 !
b1110 "
04
01
03
0-
#440000
b110 !
b110 "
b100 "
b100 !
0*
0,
0.
00
#450000
b101 !
b101 "
b111 "
b111 !
13
1*
14
1.
#460000
b1111 !
b1111 "
1,
10
#470000
b1011 "
b1011 !
b1001 "
b1001 !
b1 !
b1 "
0.
0/
00
0*
0+
0,
#480000
b11 "
b11 !
1.
1*
#490000
b10011 "
b10011 !
b10111 "
b10111 !
b11111 !
b11111 "
b11101 "
b11101 !
0.
1/
10
11
0*
1+
1,
1-
#500000
b11100 !
b11100 "
b1100 "
b1100 !
b1000 "
b1000 !
b1010 "
b1010 !
03
1*
0+
0-
04
1.
0/
01
#510000
b10 !
b10 "
b11 !
b11 "
b10011 "
b10011 !
b10111 "
b10111 !
13
1+
0,
1-
14
1/
00
11
#520000
b10101 "
b10101 !
b11101 !
b11101 "
b1101 "
b1101 !
b1001 "
b1001 !
0.
0/
10
01
0*
0+
1,
0-
#540000
b1000 !
b1000 "
b1010 "
b1010 !
b10 !
b10 "
b110 "
b110 !
03
1*
1+
0,
04
1.
1/
00
#550000
b10110 "
b10110 !
b11110 !
b11110 "
10
11
1,
1-
#560000
b11111 !
b11111 "
b11101 "
b11101 !
b11001 "
b11001 !
b1001 "
b1001 !
13
0*
0+
0-
14
0.
0/
01
#570000
b1 !
b1 "
b0 !
b0 "
b10000 !
03
0,
04
00
11
