simulation/qsim/processor.msim.vcd
$comment
	File created using the following command:
		vcd file processor.msim.vcd -direction
$end
$date
	Wed Nov 02 12:52:09 2022
$end
$version
	ModelSim Version 10.5b
$end
$timescale
	1ps
$end

$scope module sx_vlg_vec_tst $end
$var reg 17 ! immed [16:0] $end
$var wire 1 " data_result [31] $end
$var wire 1 # data_result [30] $end
$var wire 1 $ data_result [29] $end
$var wire 1 % data_result [28] $end
$var wire 1 & data_result [27] $end
$var wire 1 ' data_result [26] $end
$var wire 1 ( data_result [25] $end
$var wire 1 ) data_result [24] $end
$var wire 1 * data_result [23] $end
$var wire 1 + data_result [22] $end
$var wire 1 , data_result [21] $end
$var wire 1 - data_result [20] $end
$var wire 1 . data_result [19] $end
$var wire 1 / data_result [18] $end
$var wire 1 0 data_result [17] $end
$var wire 1 1 data_result [16] $end
$var wire 1 2 data_result [15] $end
$var wire 1 3 data_result [14] $end
$var wire 1 4 data_result [13] $end
$var wire 1 5 data_result [12] $end
$var wire 1 6 data_result [11] $end
$var wire 1 7 data_result [10] $end
$var wire 1 8 data_result [9] $end
$var wire 1 9 data_result [8] $end
$var wire 1 : data_result [7] $end
$var wire 1 ; data_result [6] $end
$var wire 1 < data_result [5] $end
$var wire 1 = data_result [4] $end
$var wire 1 > data_result [3] $end
$var wire 1 ? data_result [2] $end
$var wire 1 @ data_result [1] $end
$var wire 1 A data_result [0] $end

$scope module i1 $end
$var wire 1 B gnd $end
$var wire 1 C vcc $end
$var wire 1 D unknown $end
$var tri1 1 E devclrn $end
$var tri1 1 F devpor $end
$var tri1 1 G devoe $end
$var wire 1 H data_result[0]~output_o $end
$var wire 1 I data_result[1]~output_o $end
$var wire 1 J data_result[2]~output_o $end
$var wire 1 K data_result[3]~output_o $end
$var wire 1 L data_result[4]~output_o $end
$var wire 1 M data_result[5]~output_o $end
$var wire 1 N data_result[6]~output_o $end
$var wire 1 O data_result[7]~output_o $end
$var wire 1 P data_result[8]~output_o $end
$var wire 1 Q data_result[9]~output_o $end
$var wire 1 R data_result[10]~output_o $end
$var wire 1 S data_result[11]~output_o $end
$var wire 1 T data_result[12]~output_o $end
$var wire 1 U data_result[13]~output_o $end
$var wire 1 V data_result[14]~output_o $end
$var wire 1 W data_result[15]~output_o $end
$var wire 1 X data_result[16]~output_o $end
$var wire 1 Y data_result[17]~output_o $end
$var wire 1 Z data_result[18]~output_o $end
$var wire 1 [ data_result[19]~output_o $end
$var wire 1 \ data_result[20]~output_o $end
$var wire 1 ] data_result[21]~output_o $end
$var wire 1 ^ data_result[22]~output_o $end
$var wire 1 _ data_result[23]~output_o $end
$var wire 1 ` data_result[24]~output_o $end
$var wire 1 a data_result[25]~output_o $end
$var wire 1 b data_result[26]~output_o $end
$var wire 1 c data_result[27]~output_o $end
$var wire 1 d data_result[28]~output_o $end
$var wire 1 e data_result[29]~output_o $end
$var wire 1 f data_result[30]~output_o $end
$var wire 1 g data_result[31]~output_o $end
$var wire 1 h immed[0]~input_o $end
$var wire 1 i immed[1]~input_o $end
$var wire 1 j immed[2]~input_o $end
$var wire 1 k immed[3]~input_o $end
$var wire 1 l immed[4]~input_o $end
$var wire 1 m immed[5]~input_o $end
$var wire 1 n immed[6]~input_o $end
$var wire 1 o immed[7]~input_o $end
$var wire 1 p immed[8]~input_o $end
$var wire 1 q immed[9]~input_o $end
$var wire 1 r immed[10]~input_o $end
$var wire 1 s immed[11]~input_o $end
$var wire 1 t immed[12]~input_o $end
$var wire 1 u immed[13]~input_o $end
$var wire 1 v immed[14]~input_o $end
$var wire 1 w immed[15]~input_o $end
$var wire 1 x immed[16]~input_o $end
$upscope $end
$upscope $end
$enddefinitions $end
#0
$dumpvars
b0 !
0A
0@
0?
0>
0=
0<
0;
0:
09
08
07
06
05
04
03
02
01
00
0/
0.
0-
0,
0+
0*
0)
0(
0'
0&
0%
0$
0#
0"
0B
1C
xD
1E
1F
1G
0H
0I
0J
0K
0L
0M
0N
0O
0P
0Q
0R
0S
0T
0U
0V
0W
0X
0Y
0Z
0[
0\
0]
0^
0_
0`
0a
0b
0c
0d
0e
0f
0g
0h
0i
0j
0k
0l
0m
0n
0o
0p
0q
0r
0s
0t
0u
0v
0w
0x
$end
#20000
b10000000000000 !
b11000000000000 !
b11010000000000 !
b11010100000000 !
b11010100000010 !
b11010100000011 !
1h
1i
1p
1r
1t
1u
1U
1T
1R
1P
1I
1H
1A
1@
19
17
15
14
#30000
b10011010100000011 !
b11011010100000011 !
b11011110100000011 !
b11011111100000011 !
b11011111110000011 !
b11011111111000011 !
b11011111111100011 !
b11011111111110011 !
b11001111111110011 !
b11000111111110011 !
b11000111111110001 !
0i
1l
1m
1n
1o
1q
1s
0t
0u
1w
1x
1X
1Y
1Z
1[
1\
1]
1^
1_
1`
1a
1b
1c
1d
1e
1f
1g
1W
0U
0T
1S
1Q
1O
1N
1M
1L
0I
0@
1=
1<
1;
1:
18
16
05
04
12
1"
1#
1$
1%
1&
1'
1(
1)
1*
1+
1,
1-
1.
1/
10
11
#40000
b11000101111110001 !
b1000101111110001 !
b101111110001 !
b1111110001 !
b1101110001 !
b1100110001 !
b1100010001 !
b1100000001 !
b1001100000001 !
b1001100000011 !
1i
0l
0m
0n
0o
0r
0s
1t
0w
0x
0X
0Y
0Z
0[
0\
0]
0^
0_
0`
0a
0b
0c
0d
0e
0f
0g
0W
1T
0S
0R
0O
0N
0M
0L
1I
1@
0=
0<
0;
0:
07
06
15
02
0"
0#
0$
0%
0&
0'
0(
0)
0*
0+
0,
0-
0.
0/
00
01
#50000
b101001100000011 !
b101001000000011 !
b101000000000011 !
b111000000000011 !
b111100000000011 !
b111100010000011 !
b111100011000011 !
b111100011010011 !
b111100011010001 !
0i
1l
1n
1o
0p
0q
1s
1u
1v
1V
1U
1S
0Q
0P
1O
1N
1L
0I
0@
1=
1;
1:
09
08
16
14
13
#60000
b111100011011001 !
b111100011011101 !
b111100011111101 !
b110100011111101 !
b10100011111101 !
b100011111101 !
b100001111101 !
b100000111101 !
b100000101101 !
b100000101111 !
1i
1j
1k
0l
1m
0n
0o
0t
0u
0v
0V
0U
0T
0O
0N
1M
0L
1K
1J
1I
1@
1?
1>
0=
1<
0;
0:
05
04
03
#70000
b110000101111 !
b10000110000101111 !
b10000110100101111 !
b10000010100101111 !
b10100010100101111 !
b10110010100101111 !
b10110010110101111 !
1o
1p
1r
0s
1u
1v
1x
1X
1Y
1Z
1[
1\
1]
1^
1_
1`
1a
1b
1c
1d
1e
1f
1g
1V
1U
0S
1R
1P
1O
1:
19
17
06
14
13
1"
1#
1$
1%
1&
1'
1(
1)
1*
1+
1,
1-
1.
1/
10
11
#80000
b10110010110101110 !
b10110010110001110 !
b10111010110001110 !
b10111010111001110 !
b10111000111001110 !
b10111100111001110 !
b10011100111001110 !
b10011100101001110 !
0h
0m
1n
0o
0r
1s
1t
0v
0V
1T
1S
0R
0O
1N
0M
0H
0A
0<
1;
0:
07
16
15
03
#90000
b11011100101001110 !
b11011101101001110 !
b11011101101001100 !
b1011101101001100 !
b1001101101001100 !
b1001101101001101 !
b1001101101101101 !
b1000101101101101 !
b1000101100101101 !
b1000111100101101 !
b1000011100101101 !
b1000011110101101 !
1h
0i
1m
0n
1o
1q
1r
0s
0t
0u
1w
0x
0X
0Y
0Z
0[
0\
0]
0^
0_
0`
0a
0b
0c
0d
0e
0f
0g
1W
0U
0T
0S
1R
1Q
1O
0N
1M
0I
1H
1A
0@
1<
0;
1:
18
17
06
05
04
12
0"
0#
0$
0%
0&
0'
0(
0)
0*
0+
0,
0-
0.
0/
00
01
#100000
b1000011110100101 !
b1000011110100001 !
b1000011110110001 !
b1000011010110001 !
b1100011010110001 !
b1100010010110001 !
b1100010010110011 !
b1100010010110010 !
b1100010010010010 !
b1101010010010010 !
b1101110010010010 !
0h
1i
0j
0k
1l
0m
0p
0q
1s
1t
1v
1V
1T
1S
0Q
0P
0M
1L
0K
0J
1I
0H
0A
1@
0?
0>
1=
0<
09
08
16
15
13
#110000
b101110010010010 !
b101110011010010 !
b101100011010010 !
b101100001010010 !
b101100001010110 !
b101100001000110 !
b1100001000110 !
b1100001100110 !
b100001100110 !
b1100110 !
1j
0l
1m
1n
0o
0r
0s
0t
0v
0w
0W
0V
0T
0S
0R
0O
1N
1M
0L
1J
1?
0=
1<
1;
0:
07
06
05
03
02
#120000
b10000000001100110 !
b10010000001100110 !
b10010000001101110 !
b10010000001101111 !
b11010000001101111 !
b11010000000101111 !
b11010000000101011 !
b11011000000101011 !
1h
0j
1k
0n
1t
1u
1w
1x
1X
1Y
1Z
1[
1\
1]
1^
1_
1`
1a
1b
1c
1d
1e
1f
1g
1W
1U
1T
0N
1K
0J
1H
1A
0?
1>
0;
15
14
12
1"
1#
1$
1%
1&
1'
1(
1)
1*
1+
1,
1-
1.
1/
10
11
#130000
b11011000100101011 !
b11011001100101011 !
b11011001100111011 !
b11011001100011011 !
b11011101100011011 !
b1011101100011011 !
b1001101100011011 !
b1001101100011111 !
b1000101100011111 !
1j
1l
0m
1p
1q
1s
0t
0u
0x
0X
0Y
0Z
0[
0\
0]
0^
0_
0`
0a
0b
0c
0d
0e
0f
0g
0U
0T
1S
1Q
1P
0M
1L
1J
1?
1=
0<
19
18
16
05
04
0"
0#
0$
0%
0&
0'
0(
0)
0*
0+
0,
0-
0.
0/
00
01
#140000
b1000101100010111 !
b1000101101010111 !
b1000100101010111 !
b1000100101000111 !
b1000000101000111 !
b11000000101000111 !
b11010000101000111 !
0k
0l
1n
0q
0s
1u
1x
1X
1Y
1Z
1[
1\
1]
1^
1_
1`
1a
1b
1c
1d
1e
1f
1g
1U
0S
0Q
1N
0L
0K
0>
0=
1;
08
06
14
1"
1#
1$
1%
1&
1'
1(
1)
1*
1+
1,
1-
1.
1/
10
11
#150000
b11010000101000101 !
b10010000101000101 !
b10010000101100101 !
b10000101100101 !
0i
1m
0w
0x
0X
0Y
0Z
0[
0\
0]
0^
0_
0`
0a
0b
0c
0d
0e
0f
0g
0W
1M
0I
0@
1<
02
0"
0#
0$
0%
0&
0'
0(
0)
0*
0+
0,
0-
0.
0/
00
01
#160000
b10000111100101 !
b110000111100101 !
b110000011100101 !
b110000011101101 !
b110000011111101 !
b110000011111111 !
b1110000011111111 !
b1110000011011111 !
b11110000011011111 !
1i
1k
1l
0m
1o
0p
1v
1w
1x
1X
1Y
1Z
1[
1\
1]
1^
1_
1`
1a
1b
1c
1d
1e
1f
1g
1W
1V
0P
1O
0M
1L
1K
1I
1@
1>
1=
0<
1:
09
13
12
1"
1#
1$
1%
1&
1'
1(
1)
1*
1+
1,
1-
1.
1/
10
11
#170000
b11110000011011110 !
b11110000010011110 !
b11110100010011110 !
b11110100010010110 !
b11110100010000110 !
b11110100010000100 !
b10110100010000100 !
0h
0i
0k
0l
0n
1s
0w
0W
1S
0N
0L
0K
0I
0H
0A
0@
0>
0=
0;
16
02
#180000
b10110110010000100 !
b10111110010000100 !
b10111111010000100 !
b10101111010000100 !
b101111010000100 !
b101111010000101 !
b101111011000101 !
b101111011000111 !
1h
1i
1n
1q
1r
1t
0u
0x
0X
0Y
0Z
0[
0\
0]
0^
0_
0`
0a
0b
0c
0d
0e
0f
0g
0U
1T
1R
1Q
1N
1I
1H
1A
1@
1;
18
17
15
04
0"
0#
0$
0%
0&
0'
0(
0)
0*
0+
0,
0-
0.
0/
00
01
#190000
b101111011100111 !
b101111011101111 !
b101101011101111 !
b100101011101111 !
b110101011101111 !
b110101010101111 !
b110101010101101 !
0i
1k
1m
0n
0r
0t
1u
1U
0T
0R
0N
1M
1K
0I
0@
1>
1<
0;
07
05
14
#200000
b10101010101101 !
b10101110101101 !
b10001110101101 !
b10010001110101101 !
b10010001110101100 !
b10011001110101100 !
b10011001110101110 !
0h
1i
1p
0s
1t
0v
1x
1X
1Y
1Z
1[
1\
1]
1^
1_
1`
1a
1b
1c
1d
1e
1f
1g
0V
1T
0S
1P
1I
0H
0A
1@
19
06
15
03
1"
1#
1$
1%
1&
1'
1(
1)
1*
1+
1,
1-
1.
1/
10
11
#210000
b10011001110101010 !
b10011001110111010 !
b10011000110111010 !
b10011010110111010 !
b10010010110111010 !
b10010010110111000 !
0i
0j
1l
0q
1r
0t
0T
1R
0Q
1L
0J
0I
0@
0?
1=
08
17
05
#220000
b10010010100111000 !
b11010010100111000 !
b11010010100011000 !
b11000010100011000 !
b11000010101011000 !
b11100010101011000 !
b11100010001011000 !
b11100110001011000 !
b1100110001011000 !
b1100110001011001 !
b1101110001011001 !
1h
0m
1n
0o
0p
1s
1t
0u
1v
1w
0x
0X
0Y
0Z
0[
0\
0]
0^
0_
0`
0a
0b
0c
0d
0e
0f
0g
1W
1V
0U
1T
1S
0P
0O
1N
0M
1H
1A
0<
1;
0:
09
16
15
04
13
12
0"
0#
0$
0%
0&
0'
0(
0)
0*
0+
0,
0-
0.
0/
00
01
#230000
b1101100001011001 !
b1101100011011001 !
b101100011011001 !
b101100011111001 !
b101100010111001 !
b1100010111001 !
b1100110111001 !
b1000110111001 !
b110111001 !
1m
0n
1o
1p
0r
0s
0t
0v
0w
0W
0V
0T
0S
0R
1P
1O
0N
1M
1<
0;
1:
19
07
06
05
03
02
#240000
b10000110111001 !
b10010000110111001 !
b10010000111111001 !
b10110000111111001 !
b10110000011111001 !
1n
0p
1u
1v
1x
1X
1Y
1Z
1[
1\
1]
1^
1_
1`
1a
1b
1c
1d
1e
1f
1g
1V
1U
0P
1N
1;
09
14
13
1"
1#
1$
1%
1&
1'
1(
1)
1*
1+
1,
1-
1.
1/
10
11
#250000
b10110000011111011 !
b10110000011111010 !
b10110000001111010 !
b11110000001111010 !
b11110100001111010 !
b11100100001111010 !
b11000100001111010 !
0h
1i
0o
1s
0u
0v
1w
1W
0V
0U
1S
0O
1I
0H
0A
1@
0:
16
04
03
12
#260000
b11000100001111110 !
b11000110001111110 !
b1000110001111110 !
b1000110101111110 !
b1000110111111110 !
1j
1o
1p
1r
0x
0X
0Y
0Z
0[
0\
0]
0^
0_
0`
0a
0b
0c
0d
0e
0f
0g
1R
1P
1O
1J
1?
1:
19
17
0"
0#
0$
0%
0&
0'
0(
0)
0*
0+
0,
0-
0.
0/
00
01
#270000
b1000110111101110 !
b1000110111001110 !
b1000110111001100 !
b1000110111001101 !
b110111001101 !
b10111001101 !
b111001101 !
b10000000111001101 !
1h
0i
0l
0m
0r
0s
0w
1x
1X
1Y
1Z
1[
1\
1]
1^
1_
1`
1a
1b
1c
1d
1e
1f
1g
0W
0S
0R
0M
0L
0I
1H
1A
0@
0=
0<
07
06
02
1"
1#
1$
1%
1&
1'
1(
1)
1*
1+
1,
1-
1.
1/
10
11
#280000
b10000001111001101 !
b10000001110001101 !
b10010001110001101 !
b10110001110001101 !
b10110001110001001 !
b10110001100001001 !
b10110001100101001 !
b10110011100101001 !
b110011100101001 !
0j
1m
0n
0o
1q
1r
1u
1v
0x
0X
0Y
0Z
0[
0\
0]
0^
0_
0`
0a
0b
0c
0d
0e
0f
0g
1V
1U
1R
1Q
0O
0N
1M
0J
0?
1<
0;
0:
18
17
14
13
0"
0#
0$
0%
0&
0'
0(
0)
0*
0+
0,
0-
0.
0/
00
01
#290000
b110011100100001 !
b111011100100001 !
b111011100100011 !
b111010100100011 !
b111010101100011 !
b101010101100011 !
b1010101100011 !
b1000101100011 !
b10001000101100011 !
1i
0k
1n
0q
0r
1t
0u
0v
1x
1X
1Y
1Z
1[
1\
1]
1^
1_
1`
1a
1b
1c
1d
1e
1f
1g
0V
0U
1T
0R
0Q
1N
0K
1I
1@
0>
1;
08
07
15
04
03
1"
1#
1$
1%
1&
1'
1(
1)
1*
1+
1,
1-
1.
1/
10
11
#300000
b10001000101110011 !
b10001000101110010 !
b11001000101110010 !
b11001000111110010 !
b11001000111010010 !
b11001001111010010 !
b11011001111010010 !
b11111001111010010 !
b11111011111010010 !
0h
1l
0m
1o
1q
1r
1u
1v
1w
1W
1V
1U
1R
1Q
1O
0M
1L
0H
0A
1=
0<
1:
18
17
14
13
12
#310000
b11111011111010110 !
b11111011111011110 !
b11110011111011110 !
b11110011111011100 !
b10110011111011100 !
b10110011111111100 !
b10110010111111100 !
b10110000111111100 !
0i
1j
1k
1m
0q
0r
0t
0w
0W
0T
0R
0Q
1M
1K
1J
0I
0@
1?
1>
1<
08
07
05
02
#320000
b10110000011111100 !
b10110000011101100 !
b10010000011101100 !
b10010000011101110 !
b10010001011101110 !
b10010011011101110 !
1i
0l
0p
1q
1r
0v
0V
1R
1Q
0P
0L
1I
1@
0=
09
18
17
03
#330000
b10011011101110 !
b11011101110 !
b11011001110 !
b11111001110 !
b11111011110 !
b100011111011110 !
b100010111011110 !
1l
0m
1p
0q
0u
1v
0x
0X
0Y
0Z
0[
0\
0]
0^
0_
0`
0a
0b
0c
0d
0e
0f
0g
1V
0U
0Q
1P
0M
1L
1=
0<
19
08
04
13
0"
0#
0$
0%
0&
0'
0(
0)
0*
0+
0,
0-
0.
0/
00
01
#340000
b100010110011110 !
b100010100011110 !
b100010100011010 !
b100010100010010 !
b100010100010000 !
b100000100010000 !
b100000000010000 !
b100000000000000 !
b0 !
0i
0j
0k
0l
0n
0o
0p
0r
0v
0V
0R
0P
0O
0N
0L
0K
0J
0I
0@
0?
0>
0=
0;
0:
09
07
03
