simulation/qsim/processor.msim.vcd
$comment
	File created using the following command:
		vcd file processor.msim.vcd -direction
$end
$date
	Wed Nov 02 13:29:57 2022
$end
$version
	ModelSim Version 10.5b
$end
$timescale
	1ps
$end

$scope module cmp_vlg_vec_tst $end
$var reg 5 ! numberTwo [4:0] $end
$var reg 5 " numberone [4:0] $end
$var wire 1 # equal_flag $end

$scope module i1 $end
$var wire 1 $ gnd $end
$var wire 1 % vcc $end
$var wire 1 & unknown $end
$var tri1 1 ' devclrn $end
$var tri1 1 ( devpor $end
$var tri1 1 ) devoe $end
$var wire 1 * equal_flag~output_o $end
$var wire 1 + numberTwo[4]~input_o $end
$var wire 1 , numberTwo[2]~input_o $end
$var wire 1 - numberone[3]~input_o $end
$var wire 1 . numberTwo[3]~input_o $end
$var wire 1 / numberone[2]~input_o $end
$var wire 1 0 ad4~1_combout $end
$var wire 1 1 numberone[4]~input_o $end
$var wire 1 2 numberone[1]~input_o $end
$var wire 1 3 numberTwo[1]~input_o $end
$var wire 1 4 numberone[0]~input_o $end
$var wire 1 5 numberTwo[0]~input_o $end
$var wire 1 6 ad4~0_combout $end
$var wire 1 7 ad4~2_combout $end
$upscope $end
$upscope $end
$enddefinitions $end
#0
$dumpvars
b10000 !
b0 "
0#
0$
1%
x&
1'
1(
1)
0*
1+
0,
0-
0.
0/
00
01
02
03
04
05
06
17
$end
#60000
b11000 !
b11100 !
b11110 !
13
1,
1.
16
10
#70000
b1110 !
b1111 !
15
0+
#80000
b111 !
b11 !
0,
0.
00
#90000
b10 !
b1010 !
05
1.
10
#100000
b1110 !
b110 !
1,
0.
#110000
b100 !
b10100 !
b10101 !
15
03
1+
#120000
b10111 !
b10110 !
05
13
#130000
b10010 !
0,
00
#140000
b11010 !
b11011 !
15
1.
10
#150000
b11001 !
b11101 !
b10101 !
03
1,
0.
#160000
b101 !
b1 !
0,
0+
00
#170000
b0 !
b10 !
b1010 !
b11010 !
b11110 !
05
13
1,
1.
1+
10
#180000
b11111 !
b10111 !
b10011 !
15
0,
0.
00
#190000
b10010 !
b10110 !
05
1,
10
#200000
b10100 !
b11100 !
b11000 !
03
0,
1.
06
#210000
b1000 !
b1010 !
b10 !
b110 !
13
1,
0.
0+
16
#220000
b10 "
b111 !
b101 !
b1101 !
b1001 !
15
03
0,
1.
12
#230000
b10010 "
b11010 "
b11011 "
b11001 !
b11000 !
b10000 !
b10100 !
05
1,
0.
1+
14
1-
11
#240000
b11111 "
b11101 "
b1101 "
b10101 !
b11101 !
15
1.
02
1/
01
06
00
#250000
b11111 !
b11110 !
b10110 !
05
13
0.
16
10
#260000
b1100 "
b10111 !
b11111 !
15
1.
04
00
#270000
b100 "
b1111 !
b1011 !
b0 "
b10000 "
b1001 !
b1000 !
05
03
0,
0+
0/
0-
11
06
10
#280000
b10001 "
b0 !
b11001 "
b10000 !
b10100 !
b1001 "
1,
0.
1+
14
1-
01
16
#290000
b1011 "
b1111 "
b111 "
b10000 !
0,
12
1/
0-
#300000
b10010 !
b10011 !
b11 !
b101 "
02
15
13
0+
#310000
b10101 "
b10 !
b10010 !
05
1+
11
#320000
b10110 !
b10100 !
03
1,
00
#330000
b10100 "
b11100 !
b11100 "
b1100 "
b1100 !
b1000 !
b1010 !
13
0,
1.
0+
04
1-
01
10
#340000
b1110 "
b10 !
b110 "
b0 !
03
0.
12
0-
#350000
b10 "
b10000 !
b10100 !
b0 "
b10110 !
13
1,
1+
02
0/
#360000
b1 "
b11110 !
b101 "
b11010 !
b111 "
b11000 !
03
0,
1.
14
12
1/
#370000
b11001 !
b1111 "
b1001 !
b1110 "
b1100 "
04
02
1-
15
0+
#380000
b11100 "
b1 !
b11000 "
b101 !
b111 !
b110 !
b10110 !
05
13
1,
0.
1+
0/
11
#390000
b11110 !
1.
#400000
b11001 "
b1001 "
b1110 !
b110 !
0.
0+
14
01
#410000
b1011 "
b111 !
b1010 "
b11010 "
15
04
12
11
#420000
b11110 "
b10111 !
b11111 !
b11111 "
1.
1+
14
1/
00
06
07
1*
1#
#430000
b11011 !
b11010 !
b1111 "
b1010 !
b1110 "
04
01
05
0,
0+
10
17
0*
0#
#440000
b110 "
b1000 !
b100 "
b0 !
b100 !
03
1,
0.
02
0-
00
07
1*
1#
#450000
b101 !
b101 "
b111 !
b111 "
14
12
15
13
#460000
b1111 "
b1111 !
1.
1-
#470000
b1011 "
b1011 !
b1001 !
b1001 "
b1 "
b1 !
03
0,
0.
02
0/
0-
#480000
b11 !
b11 "
12
13
#490000
b10011 "
b10011 !
b10111 "
b10111 !
b11111 "
b11111 !
b11101 !
b11101 "
03
1,
1.
1+
02
1/
1-
11
#500000
b11100 !
b11100 "
b1100 "
b1100 !
b1000 "
b1000 !
b1010 !
b1010 "
04
12
0/
01
05
13
0,
0+
#510000
b10 "
b10 !
b11 !
b11 "
b10011 "
b10011 !
b10111 "
b10111 !
15
1,
0.
1+
14
1/
0-
11
#520000
b10101 !
b10101 "
b11101 "
b11101 !
b1101 "
b1101 !
b1001 "
b1001 !
02
0/
1-
01
03
0,
1.
0+
#540000
b1000 !
b1000 "
b1010 !
b1010 "
b10 "
b10 !
b110 "
b110 !
04
12
1/
0-
05
13
1,
0.
#550000
b10110 "
b10110 !
b11110 "
b11110 !
1.
1+
1-
11
#560000
b11111 !
b11111 "
b11101 !
b11101 "
b11001 "
b11001 !
b1001 "
b1001 !
14
02
0/
01
15
03
0,
0+
#570000
b1 "
b1 !
b0 !
b0 "
b10000 !
05
0.
1+
04
0-
17
0*
0#
