simulation/qsim/processor.msim.vcd
$comment
	File created using the following command:
		vcd file processor.msim.vcd -direction
$end
$date
	Thu Nov 03 21:05:06 2022
$end
$version
	ModelSim Version 10.5b
$end
$timescale
	1ps
$end

$scope module sx_vlg_vec_tst $end
$var reg 17 ! immed [16:0] $end
$var wire 1 " data_result [31] $end
$var wire 1 # data_result [30] $end
$var wire 1 $ data_result [29] $end
$var wire 1 % data_result [28] $end
$var wire 1 & data_result [27] $end
$var wire 1 ' data_result [26] $end
$var wire 1 ( data_result [25] $end
$var wire 1 ) data_result [24] $end
$var wire 1 * data_result [23] $end
$var wire 1 + data_result [22] $end
$var wire 1 , data_result [21] $end
$var wire 1 - data_result [20] $end
$var wire 1 . data_result [19] $end
$var wire 1 / data_result [18] $end
$var wire 1 0 data_result [17] $end
$var wire 1 1 data_result [16] $end
$var wire 1 2 data_result [15] $end
$var wire 1 3 data_result [14] $end
$var wire 1 4 data_result [13] $end
$var wire 1 5 data_result [12] $end
$var wire 1 6 data_result [11] $end
$var wire 1 7 data_result [10] $end
$var wire 1 8 data_result [9] $end
$var wire 1 9 data_result [8] $end
$var wire 1 : data_result [7] $end
$var wire 1 ; data_result [6] $end
$var wire 1 < data_result [5] $end
$var wire 1 = data_result [4] $end
$var wire 1 > data_result [3] $end
$var wire 1 ? data_result [2] $end
$var wire 1 @ data_result [1] $end
$var wire 1 A data_result [0] $end

$scope module i1 $end
$var wire 1 B gnd $end
$var wire 1 C vcc $end
$var wire 1 D unknown $end
$var tri1 1 E devclrn $end
$var tri1 1 F devpor $end
$var tri1 1 G devoe $end
$var wire 1 H data_result[0]~output_o $end
$var wire 1 I data_result[1]~output_o $end
$var wire 1 J data_result[2]~output_o $end
$var wire 1 K data_result[3]~output_o $end
$var wire 1 L data_result[4]~output_o $end
$var wire 1 M data_result[5]~output_o $end
$var wire 1 N data_result[6]~output_o $end
$var wire 1 O data_result[7]~output_o $end
$var wire 1 P data_result[8]~output_o $end
$var wire 1 Q data_result[9]~output_o $end
$var wire 1 R data_result[10]~output_o $end
$var wire 1 S data_result[11]~output_o $end
$var wire 1 T data_result[12]~output_o $end
$var wire 1 U data_result[13]~output_o $end
$var wire 1 V data_result[14]~output_o $end
$var wire 1 W data_result[15]~output_o $end
$var wire 1 X data_result[16]~output_o $end
$var wire 1 Y data_result[17]~output_o $end
$var wire 1 Z data_result[18]~output_o $end
$var wire 1 [ data_result[19]~output_o $end
$var wire 1 \ data_result[20]~output_o $end
$var wire 1 ] data_result[21]~output_o $end
$var wire 1 ^ data_result[22]~output_o $end
$var wire 1 _ data_result[23]~output_o $end
$var wire 1 ` data_result[24]~output_o $end
$var wire 1 a data_result[25]~output_o $end
$var wire 1 b data_result[26]~output_o $end
$var wire 1 c data_result[27]~output_o $end
$var wire 1 d data_result[28]~output_o $end
$var wire 1 e data_result[29]~output_o $end
$var wire 1 f data_result[30]~output_o $end
$var wire 1 g data_result[31]~output_o $end
$var wire 1 h immed[0]~input_o $end
$var wire 1 i immed[1]~input_o $end
$var wire 1 j immed[2]~input_o $end
$var wire 1 k immed[3]~input_o $end
$var wire 1 l immed[4]~input_o $end
$var wire 1 m immed[5]~input_o $end
$var wire 1 n immed[6]~input_o $end
$var wire 1 o immed[7]~input_o $end
$var wire 1 p immed[8]~input_o $end
$var wire 1 q immed[9]~input_o $end
$var wire 1 r immed[10]~input_o $end
$var wire 1 s immed[11]~input_o $end
$var wire 1 t immed[12]~input_o $end
$var wire 1 u immed[13]~input_o $end
$var wire 1 v immed[14]~input_o $end
$var wire 1 w immed[15]~input_o $end
$var wire 1 x immed[16]~input_o $end
$upscope $end
$upscope $end
$enddefinitions $end
#0
$dumpvars
b11010110100011010 !
0A
1@
0?
1>
1=
0<
0;
0:
19
08
17
16
05
14
03
12
11
10
1/
1.
1-
1,
1+
1*
1)
1(
1'
1&
1%
1$
1#
1"
0B
1C
xD
1E
1F
1G
0H
1I
0J
1K
1L
0M
0N
0O
1P
0Q
1R
1S
0T
1U
0V
1W
1X
1Y
1Z
1[
1\
1]
1^
1_
1`
1a
1b
1c
1d
1e
1f
1g
0h
1i
0j
1k
1l
0m
0n
0o
1p
0q
1r
1s
0t
1u
0v
1w
1x
$end
#5000
b1010110100011010 !
b1000110100011010 !
b1001110100011010 !
b1001100100011010 !
b1001101100011010 !
b1001101110011010 !
b1001101110001010 !
b1001101110001110 !
b1001101110001100 !
b1001101110001101 !
1h
0i
1j
0l
1o
1q
0r
1t
0u
0x
0X
0Y
0Z
0[
0\
0]
0^
0_
0`
0a
0b
0c
0d
0e
0f
0g
0U
1T
0R
1Q
1O
0L
1J
0I
1H
1A
0@
1?
0=
1:
18
07
15
04
0"
0#
0$
0%
0&
0'
0(
0)
0*
0+
0,
0-
0.
0/
00
01
#10000
b1101101110001101 !
b1101001110001101 !
b11101001110001101 !
b11111001110001101 !
b11111000110001101 !
b11111000100001101 !
0o
0q
0s
1u
1v
1x
1X
1Y
1Z
1[
1\
1]
1^
1_
1`
1a
1b
1c
1d
1e
1f
1g
1V
1U
0S
0Q
0O
0:
08
06
14
13
1"
1#
1$
1%
1&
1'
1(
1)
1*
1+
1,
1-
1.
1/
10
11
#15000
b10111000100001101 !
b10111000100000101 !
b10111000100010101 !
b10111000100010111 !
1i
0k
1l
0w
0W
1L
0K
1I
1@
0>
1=
02
#20000
b10111000101010111 !
b10111000101010011 !
b10111000101010010 !
b10011000101010010 !
b11000101010010 !
b11001101010010 !
b11001111010010 !
b11001111011010 !
b11001111001010 !
0h
0j
1k
0l
1n
1o
1q
0v
0x
0X
0Y
0Z
0[
0\
0]
0^
0_
0`
0a
0b
0c
0d
0e
0f
0g
0V
1Q
1O
1N
0L
1K
0J
0H
0A
0?
1>
0=
1;
1:
18
03
0"
0#
0$
0%
0&
0'
0(
0)
0*
0+
0,
0-
0.
0/
00
01
#25000
b11001011001010 !
b11001011101010 !
b10001011101010 !
b10101011101010 !
b1010101011101010 !
b1010101011101000 !
b1010101011101100 !
b1010101011101101 !
b1110101011101101 !
b1110100011101101 !
b1110100001101101 !
1h
0i
1j
1m
0o
0p
0q
1s
0t
1v
1w
1W
1V
0T
1S
0Q
0P
0O
1M
1J
0I
1H
1A
0@
1?
1<
0:
09
08
16
05
13
12
#30000
b1100100001101101 !
b1100100000101101 !
b1100100000111101 !
b1100100100111101 !
b1100100100011101 !
b1101100100011101 !
b1101000100011101 !
b101000100011101 !
b101000100011100 !
b101001100011100 !
b101001110011100 !
0h
1l
0m
0n
1o
1p
1q
0s
1t
0u
0w
0W
0U
1T
0S
1Q
1P
1O
0N
0M
1L
0H
0A
1=
0<
0;
1:
19
18
06
15
04
02
#35000
b101001110011000 !
b1001110011000 !
b1001010011000 !
b1001010111000 !
b1101010111000 !
b1001101010111000 !
b1001101000111000 !
0j
1m
0o
0p
1s
0v
1w
1W
0V
1S
0P
0O
1M
0J
0?
1<
0:
09
16
03
12
#40000
b11001101000111000 !
b11001101000101000 !
b11001101000101100 !
b11101101000101100 !
b11101101100101100 !
b11101001100101100 !
b11101001110101100 !
1j
0l
1o
1p
0s
1v
1x
1X
1Y
1Z
1[
1\
1]
1^
1_
1`
1a
1b
1c
1d
1e
1f
1g
1V
0S
1P
1O
0L
1J
1?
0=
1:
19
06
13
1"
1#
1$
1%
1&
1'
1(
1)
1*
1+
1,
1-
1.
1/
10
11
#45000
b11101011110101100 !
b11101011110100100 !
b11100011110100100 !
b10100011110100100 !
b10100011110110100 !
b10100111110110100 !
0k
1l
1r
1s
0t
0w
0W
0T
1S
1R
1L
0K
0>
1=
17
16
05
02
#50000
b10100111110110110 !
b10110111110110110 !
b10110111111110110 !
b110111111110110 !
b111111111110110 !
b111011111110110 !
1i
1n
0s
1t
1u
0x
0X
0Y
0Z
0[
0\
0]
0^
0_
0`
0a
0b
0c
0d
0e
0f
0g
1U
1T
0S
1N
1I
1@
1;
06
15
14
0"
0#
0$
0%
0&
0'
0(
0)
0*
0+
0,
0-
0.
0/
00
01
#55000
b111011111010110 !
b111011011010110 !
b111011001010110 !
b111011001011110 !
b111011001011100 !
b10111011001011100 !
b10111111001011100 !
0i
1k
0m
0o
0p
1s
1x
1X
1Y
1Z
1[
1\
1]
1^
1_
1`
1a
1b
1c
1d
1e
1f
1g
1S
0P
0O
0M
1K
0I
0@
1>
0<
0:
09
16
1"
1#
1$
1%
1&
1'
1(
1)
1*
1+
1,
1-
1.
1/
10
11
#60000
b10111110001011100 !
b10110110001011100 !
b10110110001111100 !
b10110110101111100 !
b10110110111111100 !
b10110110111110100 !
b10110110111110110 !
b10110010111110110 !
1i
0k
1m
1o
1p
0q
0s
0t
0T
0S
0Q
1P
1O
1M
0K
1I
1@
0>
1<
1:
19
08
06
05
#65000
b10110000111110110 !
b10110000111100110 !
b110000111100110 !
b111000111100110 !
b111000111000110 !
b111000011000110 !
b111000011001110 !
b111000011001100 !
b111100011001100 !
0i
1k
0l
0m
0p
0r
1s
1t
0x
0X
0Y
0Z
0[
0\
0]
0^
0_
0`
0a
0b
0c
0d
0e
0f
0g
1T
1S
0R
0P
0M
0L
1K
0I
0@
1>
0=
0<
09
07
16
15
0"
0#
0$
0%
0&
0'
0(
0)
0*
0+
0,
0-
0.
0/
00
01
#70000
b111100011001101 !
b101100011001101 !
b101101011001101 !
b100101011001101 !
b100101111001101 !
b100101111001111 !
1h
1i
1p
1q
0t
0u
0U
0T
1Q
1P
1I
1H
1A
1@
19
18
05
04
#75000
b100101111001011 !
b101111001011 !
b1000101111001011 !
b1000101110001011 !
b1000101100001011 !
b1000101100011011 !
b11000101100011011 !
b11000001100011011 !
b11010001100011011 !
b11010000100011011 !
b11011000100011011 !
b11011000100011001 !
0i
0j
1l
0n
0o
0q
0s
1t
1u
0v
1w
1x
1X
1Y
1Z
1[
1\
1]
1^
1_
1`
1a
1b
1c
1d
1e
1f
1g
1W
0V
1U
1T
0S
0Q
0O
0N
1L
0J
0I
0@
0?
1=
0;
0:
08
06
15
14
03
12
1"
1#
1$
1%
1&
1'
1(
1)
1*
1+
1,
1-
1.
1/
10
11
#80000
b11011000100010001 !
b11011000100010000 !
b11011000100010100 !
b10011000100010100 !
b10011000110010100 !
b10011000110000100 !
b10011100110000100 !
b10011101110000100 !
b10010101110000100 !
0h
1j
0k
0l
1o
1q
1s
0t
0w
0W
0T
1S
1Q
1O
0L
0K
1J
0H
0A
1?
0>
0=
1:
18
16
05
02
#85000
b10010111110000100 !
b10010111010000100 !
b10010111011000100 !
b10010111011001100 !
b10010111011001101 !
b10010111011001001 !
b11010111011001001 !
b11010111001001001 !
b11010110001001001 !
1h
0j
1k
1n
0o
0p
0q
1r
1w
1W
1R
0Q
0P
0O
1N
1K
0J
1H
1A
0?
1>
1;
0:
09
08
17
12
#90000
b11110110001001001 !
b1110110001001001 !
b1100110001001001 !
b1100110001011001 !
b1101110001011001 !
b1101100001011001 !
b1101100101011001 !
b1101100101010001 !
b1101100101010000 !
b1101100111010000 !
b1101101111010000 !
0h
0k
1l
1o
1p
1q
0r
1t
0u
1v
0x
0X
0Y
0Z
0[
0\
0]
0^
0_
0`
0a
0b
0c
0d
0e
0f
0g
1V
0U
1T
0R
1Q
1P
1O
1L
0K
0H
0A
0>
1=
1:
19
18
07
15
04
13
0"
0#
0$
0%
0&
0'
0(
0)
0*
0+
0,
0-
0.
0/
00
01
#95000
b1101001111010000 !
b101001111010000 !
b111001111010000 !
b111001111000000 !
b110001111000000 !
b110011111000000 !
b110011111000001 !
1h
0l
1r
0s
0t
1u
0w
0W
1U
0T
0S
1R
0L
1H
1A
0=
17
06
05
14
02
#100000
b110011111000011 !
b110011110000011 !
b110011010000011 !
b110010010000011 !
1i
0n
0p
0q
0Q
0P
0N
1I
1@
0;
09
08
#105000
b110010010100011 !
b10010010100011 !
b10010010010100011 !
b10010010000100011 !
b10010010000110011 !
b10011010000110011 !
b10011010000110010 !
b10011010100110010 !
0h
1l
1m
0o
1p
1t
0v
1x
1X
1Y
1Z
1[
1\
1]
1^
1_
1`
1a
1b
1c
1d
1e
1f
1g
0V
1T
1P
0O
1M
1L
0H
0A
1=
1<
0:
19
15
03
1"
1#
1$
1%
1&
1'
1(
1)
1*
1+
1,
1-
1.
1/
10
11
#110000
b10011110100110010 !
b10011110101110010 !
b10011110111110010 !
b10010110111110010 !
1n
1o
1s
0t
0T
1S
1O
1N
1;
1:
16
05
#115000
b10010110111110110 !
b11010110111110110 !
b11000110111110110 !
b11100110111110110 !
b11100110101110110 !
1j
0o
0u
1v
1w
1W
1V
0U
0O
1J
1?
0:
04
13
12
#120000
b11100100101110110 !
b11100100101110100 !
b1100100101110100 !
b1100100101100100 !
b1100100101100101 !
b1100100001100101 !
b1100000001100101 !
b1100000000100101 !
b1101000000100101 !
b1111000000100101 !
b1011000000100101 !
b1011000010100101 !
1h
0i
0l
0n
1o
0p
0r
0s
1t
1u
0v
0x
0X
0Y
0Z
0[
0\
0]
0^
0_
0`
0a
0b
0c
0d
0e
0f
0g
0V
1U
1T
0S
0R
0P
1O
0N
0L
0I
1H
1A
0@
0=
0;
1:
09
07
06
15
14
03
0"
0#
0$
0%
0&
0'
0(
0)
0*
0+
0,
0-
0.
0/
00
01
#125000
b1011000010101101 !
b1011001010101101 !
b1011001010101111 !
b1011001010101110 !
b1011001011101110 !
b1010001011101110 !
b1000001011101110 !
b1100001011101110 !
0h
1i
1k
1n
1q
0t
0u
1v
1V
0U
0T
1Q
1N
1K
1I
0H
0A
1@
1>
1;
18
05
04
13
#130000
b1100001011001110 !
b1100001011001010 !
b100001011001010 !
b100011011001010 !
b10100011011001010 !
b10100011111001010 !
b10100011101001010 !
b10100011101000010 !
b10100011101000011 !
b10101011101000011 !
1h
0j
0k
0m
0o
1p
1r
1t
0w
1x
1X
1Y
1Z
1[
1\
1]
1^
1_
1`
1a
1b
1c
1d
1e
1f
1g
0W
1T
1R
1P
0O
0M
0K
0J
1H
1A
0?
0>
0<
0:
19
17
15
02
1"
1#
1$
1%
1&
1'
1(
1)
1*
1+
1,
1-
1.
1/
10
11
#135000
b10101010101000011 !
b10101010101000001 !
b10001010101000001 !
b11001010101000001 !
b11001000101000001 !
b11001000001000001 !
b11001000011000001 !
b11001000011000000 !
b11000000011000000 !
0h
0i
1o
0p
0q
0r
0t
0v
1w
1W
0V
0T
0R
0Q
0P
1O
0I
0H
0A
0@
1:
09
08
07
05
03
12
#140000
b11000000011010000 !
b11000000011110000 !
b1000000011110000 !
b1000000011111000 !
b1000001011111000 !
b1100001011111000 !
b1100001111111000 !
b1100001111111001 !
1h
1k
1l
1m
1p
1q
1v
0x
0X
0Y
0Z
0[
0\
0]
0^
0_
0`
0a
0b
0c
0d
0e
0f
0g
1V
1Q
1P
1M
1L
1K
1H
1A
1>
1=
1<
19
18
13
0"
0#
0$
0%
0&
0'
0(
0)
0*
0+
0,
0-
0.
0/
00
01
#145000
b1100001101111001 !
b1100001101101001 !
b1100001101100001 !
b1100000101100001 !
b1000000101100001 !
b1000000001100001 !
0k
0l
0o
0p
0q
0v
0V
0Q
0P
0O
0L
0K
0>
0=
0:
09
08
03
#150000
b1000000000100001 !
b1010000000100001 !
b1010000000100101 !
b1010000000100111 !
b10000000100111 !
b11000000100111 !
b10011000000100111 !
b10011000000100110 !
b10011000010100110 !
b10011000010101110 !
0h
1i
1j
1k
0n
1o
1t
1u
0w
1x
1X
1Y
1Z
1[
1\
1]
1^
1_
1`
1a
1b
1c
1d
1e
1f
1g
0W
1U
1T
1O
0N
1K
1J
1I
0H
0A
1@
1?
1>
0;
1:
15
14
02
1"
1#
1$
1%
1&
1'
1(
1)
1*
1+
1,
1-
1.
1/
10
11
#155000
b10011010010101110 !
b10011010010001110 !
b10011011010001110 !
b10011011110001110 !
b10011011111001110 !
b10011011111001010 !
b10011011111001000 !
b11011011111001000 !
b11010011111001000 !
b11010011101001000 !
0i
0j
0m
1n
0o
1p
1q
1r
0t
1w
1W
0T
1R
1Q
1P
0O
1N
0M
0J
0I
0@
0?
0<
1;
0:
19
18
17
05
12
#160000
b11010111101001000 !
b11010111101011000 !
b11110111101011000 !
b11100111101011000 !
b1100111101011000 !
b1100111101010000 !
b1100111001010000 !
b1100111000010000 !
b1101111000010000 !
b1101111010010000 !
0k
1l
0n
1o
0p
1s
1t
0u
1v
0x
0X
0Y
0Z
0[
0\
0]
0^
0_
0`
0a
0b
0c
0d
0e
0f
0g
1V
0U
1T
1S
0P
1O
0N
1L
0K
0>
1=
0;
1:
09
16
15
04
13
0"
0#
0$
0%
0&
0'
0(
0)
0*
0+
0,
0-
0.
0/
00
01
#165000
b1101111010010001 !
b1101101010010001 !
b1101100010010001 !
b1101100010010011 !
b1001100010010011 !
b1001100110010011 !
b1000100110010011 !
b1000100100010011 !
1h
1i
0o
1p
0q
0r
0t
0v
0V
0T
0R
0Q
1P
0O
1I
1H
1A
1@
0:
19
08
07
05
03
#170000
b1000100100110011 !
b1000100100110111 !
b100100110111 !
b100100100111 !
b100100100110 !
b100000100110 !
b1100000100110 !
b1100010100110 !
0h
1j
0l
1m
1o
0p
1t
0w
0W
1T
0P
1O
1M
0L
1J
0H
0A
1?
0=
1<
1:
09
15
02
#175000
b10001100010100110 !
b10001100011100110 !
b10001100011100100 !
b10101100011100100 !
b10101100011000100 !
b10101100011000000 !
b10101100011000001 !
1h
0i
0j
0m
1n
1v
1x
1X
1Y
1Z
1[
1\
1]
1^
1_
1`
1a
1b
1c
1d
1e
1f
1g
1V
1N
0M
0J
0I
1H
1A
0@
0?
0<
1;
13
1"
1#
1$
1%
1&
1'
1(
1)
1*
1+
1,
1-
1.
1/
10
11
#180000
b10101000011000001 !
b10111000011000001 !
b10111010011000001 !
b10111010111000001 !
b10110010111000001 !
b10110010101000001 !
b10110010101000011 !
b10010010101000011 !
1i
0o
1p
1r
0s
0t
1u
0v
0V
1U
0T
0S
1R
1P
0O
1I
1@
0:
19
17
06
05
14
03
#185000
b10010011101000011 !
b10011101000011 !
b10011100000011 !
b10011100100011 !
b10011100100010 !
b11011100100010 !
b11011110100010 !
b11011110100000 !
0h
0i
1m
0n
1o
1q
1t
0x
0X
0Y
0Z
0[
0\
0]
0^
0_
0`
0a
0b
0c
0d
0e
0f
0g
1T
1Q
1O
0N
1M
0I
0H
0A
0@
1<
0;
1:
18
15
0"
0#
0$
0%
0&
0'
0(
0)
0*
0+
0,
0-
0.
0/
00
01
#190000
b11011110101000 !
b1011011110101000 !
b1001011110101000 !
b1001011010101000 !
b1001010010101000 !
b11001010010101000 !
b11001010011101000 !
b11001010011001000 !
b11001010011001001 !
b11000010011001001 !
b11000010011001011 !
1h
1i
1k
0m
1n
0p
0q
0t
0u
1w
1x
1X
1Y
1Z
1[
1\
1]
1^
1_
1`
1a
1b
1c
1d
1e
1f
1g
1W
0U
0T
0Q
0P
1N
0M
1K
1I
1H
1A
1@
1>
0<
1;
09
08
05
04
12
1"
1#
1$
1%
1&
1'
1(
1)
1*
1+
1,
1-
1.
1/
10
11
#195000
b11000010011001111 !
b11000110011001111 !
b11000100011001111 !
b11100100011001111 !
b10100100011001111 !
b10100101011001111 !
b10100101010001111 !
b10100101010101111 !
b10101101010101111 !
1j
1m
0n
1q
0r
1s
1t
1v
0w
0W
1V
1T
1S
0R
1Q
0N
1M
1J
1?
1<
0;
18
07
16
15
13
02
#200000
b10101101000101111 !
b101101000101111 !
b101101000101110 !
b101001000101110 !
b1101001000101110 !
b1101001001101110 !
b1101001001001110 !
b1100001001001110 !
0h
0m
1n
0o
0s
0t
1w
0x
0X
0Y
0Z
0[
0\
0]
0^
0_
0`
0a
0b
0c
0d
0e
0f
0g
1W
0T
0S
0O
1N
0M
0H
0A
0<
1;
0:
06
05
12
0"
0#
0$
0%
0&
0'
0(
0)
0*
0+
0,
0-
0.
0/
00
01
#205000
b1100001001011110 !
b1110001001011110 !
b1110001101011110 !
b1110000101011110 !
b1110000111011110 !
b11110000111011110 !
b10110000111011110 !
b10110000110011110 !
b10110000110111110 !
b10111000110111110 !
1l
1m
0n
1o
1p
0q
1t
1u
0w
1x
1X
1Y
1Z
1[
1\
1]
1^
1_
1`
1a
1b
1c
1d
1e
1f
1g
0W
1U
1T
0Q
1P
1O
0N
1M
1L
1=
1<
0;
1:
19
08
15
14
02
1"
1#
1$
1%
1&
1'
1(
1)
1*
1+
1,
1-
1.
1/
10
11
#210000
b10111010110111110 !
b10101010110111110 !
b10101010010111110 !
b11101010010111110 !
0p
1r
0u
1w
1W
0U
1R
0P
09
17
04
12
#215000
b11101010010110110 !
b11101010010110010 !
b11001010010110010 !
b11001010011110010 !
b11001010111110010 !
0j
0k
1n
1p
0v
0V
1P
1N
0K
0J
0?
0>
1;
19
03
#220000
b11001010111110000 !
b11001010111110001 !
b11001110111110001 !
b11001111111110001 !
b11011111111110001 !
b11011111111111001 !
1h
0i
1k
1q
1s
1u
1U
1S
1Q
1K
0I
1H
1A
0@
1>
18
16
14
#225000
b11011111111101001 !
b11011111101101001 !
b1011111101101001 !
b1011111100101001 !
b1011111000101001 !
b1011111000101000 !
b1011011000101000 !
b1011010000101000 !
b1001010000101000 !
b1001010000100000 !
0h
0k
0l
0n
0o
0p
0q
0s
0u
0x
0X
0Y
0Z
0[
0\
0]
0^
0_
0`
0a
0b
0c
0d
0e
0f
0g
0U
0S
0Q
0P
0O
0N
0L
0K
0H
0A
0>
0=
0;
0:
09
08
06
04
0"
0#
0$
0%
0&
0'
0(
0)
0*
0+
0,
0-
0.
0/
00
01
#230000
b1001000000100000 !
b1001000000100010 !
b1001000000110010 !
b1001000100110010 !
b1001000100110011 !
b1011000100110011 !
1h
1i
1l
1p
0r
1u
1U
0R
1P
1L
1I
1H
1A
1@
1=
19
07
14
#235000
b1011000100010011 !
b11000100010011 !
b11000100010111 !
b111000100010111 !
b111000110010111 !
b10111000110010111 !
b10111000110000111 !
b10111000010000111 !
b10101000010000111 !
1j
0l
0m
1o
0p
0u
1v
0w
1x
1X
1Y
1Z
1[
1\
1]
1^
1_
1`
1a
1b
1c
1d
1e
1f
1g
0W
1V
0U
0P
1O
0M
0L
1J
1?
0=
0<
1:
09
04
13
02
1"
1#
1$
1%
1&
1'
1(
1)
1*
1+
1,
1-
1.
1/
10
11
#240000
b10101000011000111 !
b10101010011000111 !
b10101010011100111 !
b11101010011100111 !
b11101010011100011 !
b11001010011100011 !
b1001010011100011 !
b1001010111100011 !
b1011010111100011 !
0j
1m
1n
1p
1r
1u
0v
1w
0x
0X
0Y
0Z
0[
0\
0]
0^
0_
0`
0a
0b
0c
0d
0e
0f
0g
1W
0V
1U
1R
1P
1N
1M
0J
0?
1<
1;
19
17
14
03
12
0"
0#
0$
0%
0&
0'
0(
0)
0*
0+
0,
0-
0.
0/
00
01
#245000
b1010010111100011 !
b1010110111100011 !
b1010111111100011 !
b1010111111101011 !
b1010101111101011 !
b1010101111001011 !
b10101111001011 !
b10101111001111 !
1j
1k
0m
1q
0r
1s
0t
0w
0W
0T
1S
0R
1Q
0M
1K
1J
1?
1>
0<
18
07
16
05
02
#250000
b10101111001101 !
b10101111001100 !
b10101101001100 !
b10101101011100 !
b10010101101011100 !
b10010101001011100 !
b10000101001011100 !
b10001101001011100 !
b10001001001011100 !
b10001000001011100 !
b10001000001010100 !
b10001010001010100 !
0h
0i
0k
1l
0o
0p
0q
1r
0s
1t
0u
1x
1X
1Y
1Z
1[
1\
1]
1^
1_
1`
1a
1b
1c
1d
1e
1f
1g
0U
1T
0S
1R
0Q
0P
0O
1L
0K
0I
0H
0A
0@
0>
1=
0:
09
08
17
06
15
04
1"
1#
1$
1%
1&
1'
1(
1)
1*
1+
1,
1-
1.
1/
10
11
#255000
b10001010000010100 !
b10001010000010000 !
b10001010000010010 !
b10001010000010011 !
b10001010010010011 !
b10001010010000011 !
b1010010000011 !
b1011010000011 !
b1001010000011 !
1h
1i
0j
0l
0n
1o
1q
0r
0x
0X
0Y
0Z
0[
0\
0]
0^
0_
0`
0a
0b
0c
0d
0e
0f
0g
0R
1Q
1O
0N
0L
0J
1I
1H
1A
1@
0?
0=
0;
1:
18
07
0"
0#
0$
0%
0&
0'
0(
0)
0*
0+
0,
0-
0.
0/
00
01
#260000
b1001010100011 !
b1001110100011 !
b11001110100011 !
b11101110100011 !
b11101110100111 !
b11101110100110 !
b11111110100110 !
0h
1j
1m
1p
1r
1s
1u
1U
1S
1R
1P
1M
1J
0H
0A
1?
1<
19
17
16
14
#265000
b1011111110100110 !
b1011111110100100 !
b1011111100100100 !
b1011111100110100 !
b11011111100110100 !
b11011110100110100 !
b11011110100010100 !
b11001110100010100 !
b11001010100010100 !
b11001010100010000 !
0i
0j
1l
0m
0o
0q
0s
0u
1w
1x
1X
1Y
1Z
1[
1\
1]
1^
1_
1`
1a
1b
1c
1d
1e
1f
1g
1W
0U
0S
0Q
0O
0M
1L
0J
0I
0@
0?
1=
0<
0:
08
06
04
12
1"
1#
1$
1%
1&
1'
1(
1)
1*
1+
1,
1-
1.
1/
10
11
#270000
b11101010100010000 !
b11101010000010000 !
b11101000000010000 !
b10101000000010000 !
b10101000000010010 !
b10101001000010010 !
b10101001000110010 !
b10111001000110010 !
b10111101000110010 !
b10111101000110110 !
1i
1j
1m
0p
1q
0r
1s
1u
1v
0w
0W
1V
1U
1S
0R
1Q
0P
1M
1J
1I
1@
1?
1<
09
18
07
16
14
13
02
#275000
b10111101001110110 !
b10111101001110111 !
b10111101011110111 !
b111101011110111 !
b11101011110111 !
b11101111110111 !
b1011101111110111 !
b1011100111110111 !
b1011100111010111 !
b1011000111010111 !
b1011000111010011 !
1h
0j
0m
1n
1o
1p
0q
0s
0v
1w
0x
0X
0Y
0Z
0[
0\
0]
0^
0_
0`
0a
0b
0c
0d
0e
0f
0g
1W
0V
0S
0Q
1P
1O
1N
0M
0J
1H
1A
0?
0<
1;
1:
19
08
06
03
12
0"
0#
0$
0%
0&
0'
0(
0)
0*
0+
0,
0-
0.
0/
00
01
#280000
b1011000111011011 !
b1001000111011011 !
b1001000110011011 !
b1001000110011010 !
b1001000100011010 !
b1001000000011010 !
b1001001000011010 !
b1001101000011010 !
0h
1k
0n
0o
0p
1q
1s
0u
0U
1S
1Q
0P
0O
0N
1K
0H
0A
1>
0;
0:
09
18
16
04
#285000
b1000101000011010 !
b1000111000011010 !
b1000111000011000 !
b1100111000011000 !
b1100111000111000 !
b1100111001111000 !
b1100111001111001 !
b1100111101111001 !
b1100110101111001 !
1h
0i
1m
1n
1p
0q
1r
0t
1v
1V
0T
1R
0Q
1P
1N
1M
0I
1H
1A
0@
1<
1;
19
08
17
05
13
#290000
b1100110101101001 !
b11100110101101001 !
b11100110101001001 !
b11100110101001000 !
0h
0l
0m
1x
1X
1Y
1Z
1[
1\
1]
1^
1_
1`
1a
1b
1c
1d
1e
1f
1g
0M
0L
0H
0A
0=
0<
1"
1#
1$
1%
1&
1'
1(
1)
1*
1+
1,
1-
1.
1/
10
11
#295000
b10100110101001000 !
b10100110101001100 !
b10100110101000100 !
b10100110111000100 !
b10101110111000100 !
b10101100111000100 !
b10001100111000100 !
b10001100011000100 !
b10001100011010100 !
1j
0k
1l
1o
0p
0r
1t
0v
0w
0W
0V
1T
0R
0P
1O
1L
0K
1J
1?
0>
1=
1:
09
07
15
03
02
#300000
b10011100011010100 !
b10011100010010100 !
b10011101010010100 !
b11011101010010100 !
b11011101010011100 !
b11011101000011100 !
b11011111000011100 !
b11011111100011100 !
b11011111100001100 !
1k
0l
0n
0o
1p
1q
1r
1u
1w
1W
1U
1R
1Q
1P
0O
0N
0L
1K
1>
0=
0;
0:
19
18
17
14
12
#305000
b11011011100001100 !
b11011011100001110 !
b1011011100001110 !
b1011011100001111 !
b1011011100001011 !
b1111011100001011 !
b1111011101001011 !
b1111011111001011 !
1h
1i
0j
1n
1o
0s
1v
0x
0X
0Y
0Z
0[
0\
0]
0^
0_
0`
0a
0b
0c
0d
0e
0f
0g
1V
0S
1O
1N
0J
1I
1H
1A
1@
0?
1;
1:
06
13
0"
0#
0$
0%
0&
0'
0(
0)
0*
0+
0,
0-
0.
0/
00
01
#310000
b1101011111001011 !
b1101011111000011 !
b1101011011000011 !
b1101111011000011 !
b1101111011000001 !
b11101111011000001 !
b11101111001000001 !
0i
0k
0o
0p
1s
0u
1x
1X
1Y
1Z
1[
1\
1]
1^
1_
1`
1a
1b
1c
1d
1e
1f
1g
0U
1S
0P
0O
0K
0I
0@
0>
0:
09
16
04
1"
1#
1$
1%
1&
1'
1(
1)
1*
1+
1,
1-
1.
1/
10
11
#315000
b11101110001000001 !
b11101100001000001 !
b11101100001000000 !
b11101100001000100 !
b11001100001000100 !
b11001100101000100 !
b11001100101000110 !
0h
1i
1j
1p
0q
0r
0v
0V
0R
0Q
1P
1J
1I
0H
0A
1@
1?
19
08
07
03
#320000
b11001100100000110 !
b11001000100000110 !
b1001000100000110 !
b1001001100000110 !
b1001011100000110 !
b1001011100000111 !
b1101011100000111 !
1h
0n
1q
1r
0s
1v
0x
0X
0Y
0Z
0[
0\
0]
0^
0_
0`
0a
0b
0c
0d
0e
0f
0g
1V
0S
1R
1Q
0N
1H
1A
0;
18
17
06
13
0"
0#
0$
0%
0&
0'
0(
0)
0*
0+
0,
0-
0.
0/
00
01
